{
  "project_info": {
    "project_number": "1024356871075",
    "project_id": "firebase-raspberry"
  },
  "client": [
    {
      "client_info": {
        "mobilesdk_app_id": "1:1024356871075:android:932b135d0ad3cc01",
        "android_client_info": {
          "package_name": "com.mercandalli.android.apps.raspberry"
        }
      },
      "oauth_client": [],
      "api_key": [
        {
          "current_key": "AIzaSyCOtC6IK457UwKzDvpY7vRyBs5pQtrBmtU"
        }
      ],
      "services": {
        "analytics_service": {
          "status": 1
        },
        "appinvite_service": {
          "status": 1,
          "other_platform_oauth_client": []
        },
        "ads_service": {
          "status": 1
        }
      }
    }
  ],
  "configuration_version": "1"
}